USER_ID,USERNAME,AGE,GENDER
1,michael,30,m
2,evan,31,m
3,meghan,32,f
4,mehgan,30,f
5,tucker,30,m
6,tom,45,m
7,nicole,55,f
8,taylor,12,f
9,chad,22,m
10,skylar,24,f
11,henry,67,m
12,robert,55,m